…
Calculate the total steps of each day for plotting the histogram.


```r
data_fill_sum <- data_fill%>%
                group_by(date)%>%
                  summarise(sum = sum(steps))
data_fill_sum
```

```
## # A tibble: 61 x 2
##    date          sum
##    <fct>       <dbl>
##  1 2012-10-01 10766.
##  2 2012-10-02   126 
##  3 2012-10-03 11352 
##  4 2012-10-04 12116 
##  5 2012-10-05 13294 
##  6 2012-10-06 15420 
##  7 2012-10-07 11015 
##  8 2012-10-08 10766.
##  9 2012-10-09 12811 
## 10 2012-10-10  9900 
## # ... with 51 more rows
```
…
Calculate the mean across weekday and weekend


```r
mean_by_day <- day%>% 
                  group_by(interval, day)%>%
                    summarise(steps = mean(steps))
mean_by_day
```

```
## # A tibble: 576 x 3
## # Groups:   interval [288]
##    interval day       steps
##       <int> <chr>     <dbl>
##  1        0 Weekday 2.25   
##  2        0 Weekend 0.215  
##  3        5 Weekday 0.445  
##  4        5 Weekend 0.0425 
##  5       10 Weekday 0.173  
##  6       10 Weekend 0.0165 
##  7       15 Weekday 0.198  
##  8       15 Weekend 0.0189 
##  9       20 Weekday 0.0990 
## 10       20 Weekend 0.00943
## # ... with 566 more rows
```
…
